<?xml version="1.0" encoding="UTF-8" standalone="no"?><svg xmlns="http://www.w3.org/2000/svg" xmlns:xlink="http://www.w3.org/1999/xlink" contentScriptType="application/ecmascript" contentStyleType="text/css" height="290px" preserveAspectRatio="none" style="width:180px;height:290px;" version="1.1" viewBox="0 0 180 290" width="180px" zoomAndPan="magnify"><defs><filter height="300%" id="fpnxqja4sq5n1" width="300%" x="-1" y="-1"><feGaussianBlur result="blurOut" stdDeviation="2.0"/><feColorMatrix in="blurOut" result="blurOut2" type="matrix" values="0 0 0 0 0 0 0 0 0 0 0 0 0 0 0 0 0 0 .4 0"/><feOffset dx="4.0" dy="4.0" in="blurOut2" result="blurOut3"/><feBlend in="SourceGraphic" in2="blurOut3" mode="normal"/></filter></defs><g><!--class Request--><rect fill="#FEFECE" filter="url(#fpnxqja4sq5n1)" height="124.8281" id="Request" style="stroke: #A80036; stroke-width: 1.5;" width="84" x="46.5" y="8"/><ellipse cx="61.5" cy="24" fill="#ADD1B2" rx="11" ry="11" style="stroke: #A80036; stroke-width: 1.0;"/><path d="M63.8438,19.6719 L64.0156,19.75 C64.2344,19.4375 64.4375,19.3438 64.7344,19.3438 C65.0313,19.3438 65.3125,19.4844 65.4688,19.75 C65.5625,19.9063 65.5781,20.0313 65.5781,20.4688 L65.5781,21.8906 C65.5781,22.3125 65.5469,22.5 65.4375,22.6563 C65.2656,22.875 65,23.0156 64.7344,23.0156 C64.5156,23.0156 64.2813,22.9063 64.1406,22.7656 C64,22.6406 63.9688,22.5156 63.9063,22.1094 C63.8125,21.7031 63.6406,21.4844 63.1563,21.2031 C62.6875,20.9531 62.0781,20.7969 61.5,20.7969 C59.7656,20.7969 58.5156,22.1094 58.5156,23.8906 L58.5156,24.9844 C58.5156,26.6875 59.8125,27.7813 61.8594,27.7813 C62.625,27.7813 63.3125,27.6563 63.7344,27.3906 C63.9219,27.2969 63.9219,27.2969 64.375,26.8125 C64.5625,26.625 64.7656,26.5469 64.9844,26.5469 C65.4531,26.5469 65.8438,26.9375 65.8438,27.3906 C65.8438,27.7813 65.5156,28.2344 64.9375,28.6406 C64.1875,29.1875 63.0313,29.4844 61.8125,29.4844 C58.9219,29.4844 56.8125,27.5938 56.8125,25.0156 L56.8125,23.8906 C56.8125,21.1719 58.8125,19.0938 61.4375,19.0938 C62.3125,19.0938 62.9063,19.2344 63.8438,19.6719 Z "/><text fill="#000000" font-family="sans-serif" font-size="12" lengthAdjust="spacingAndGlyphs" textLength="52" x="75.5" y="28.1543">Request</text><line style="stroke: #A80036; stroke-width: 1.5;" x1="47.5" x2="129.5" y1="40" y2="40"/><text fill="#000000" font-family="sans-serif" font-size="11" lengthAdjust="spacingAndGlyphs" textLength="10" x="52.5" y="54.2104">Id</text><text fill="#000000" font-family="sans-serif" font-size="11" lengthAdjust="spacingAndGlyphs" textLength="62" x="52.5" y="67.0151">Categories</text><text fill="#000000" font-family="sans-serif" font-size="11" lengthAdjust="spacingAndGlyphs" textLength="29" x="52.5" y="79.8198">From</text><text fill="#000000" font-family="sans-serif" font-size="11" lengthAdjust="spacingAndGlyphs" textLength="14" x="52.5" y="92.6245">To</text><text fill="#000000" font-family="sans-serif" font-size="11" lengthAdjust="spacingAndGlyphs" textLength="30" x="52.5" y="105.4292">When</text><text fill="#000000" font-family="sans-serif" font-size="11" lengthAdjust="spacingAndGlyphs" textLength="41" x="52.5" y="118.2339">Tokens</text><line style="stroke: #A80036; stroke-width: 1.5;" x1="47.5" x2="129.5" y1="124.8281" y2="124.8281"/><!--class Node--><rect fill="#FEFECE" filter="url(#fpnxqja4sq5n1)" height="86.4141" id="Node" style="stroke: #A80036; stroke-width: 1.5;" width="67" x="6" y="193"/><ellipse cx="21.9" cy="209" fill="#ADD1B2" rx="11" ry="11" style="stroke: #A80036; stroke-width: 1.0;"/><path d="M24.2438,204.6719 L24.4156,204.75 C24.6344,204.4375 24.8375,204.3438 25.1344,204.3438 C25.4313,204.3438 25.7125,204.4844 25.8688,204.75 C25.9625,204.9063 25.9781,205.0313 25.9781,205.4688 L25.9781,206.8906 C25.9781,207.3125 25.9469,207.5 25.8375,207.6563 C25.6656,207.875 25.4,208.0156 25.1344,208.0156 C24.9156,208.0156 24.6813,207.9063 24.5406,207.7656 C24.4,207.6406 24.3688,207.5156 24.3063,207.1094 C24.2125,206.7031 24.0406,206.4844 23.5563,206.2031 C23.0875,205.9531 22.4781,205.7969 21.9,205.7969 C20.1656,205.7969 18.9156,207.1094 18.9156,208.8906 L18.9156,209.9844 C18.9156,211.6875 20.2125,212.7813 22.2594,212.7813 C23.025,212.7813 23.7125,212.6563 24.1344,212.3906 C24.3219,212.2969 24.3219,212.2969 24.775,211.8125 C24.9625,211.625 25.1656,211.5469 25.3844,211.5469 C25.8531,211.5469 26.2438,211.9375 26.2438,212.3906 C26.2438,212.7813 25.9156,213.2344 25.3375,213.6406 C24.5875,214.1875 23.4313,214.4844 22.2125,214.4844 C19.3219,214.4844 17.2125,212.5938 17.2125,210.0156 L17.2125,208.8906 C17.2125,206.1719 19.2125,204.0938 21.8375,204.0938 C22.7125,204.0938 23.3063,204.2344 24.2438,204.6719 Z "/><text fill="#000000" font-family="sans-serif" font-size="12" lengthAdjust="spacingAndGlyphs" textLength="33" x="36.1" y="213.1543">Node</text><line style="stroke: #A80036; stroke-width: 1.5;" x1="7" x2="72" y1="225" y2="225"/><text fill="#000000" font-family="sans-serif" font-size="11" lengthAdjust="spacingAndGlyphs" textLength="44" x="12" y="239.2104">Node ID</text><text fill="#000000" font-family="sans-serif" font-size="11" lengthAdjust="spacingAndGlyphs" textLength="55" x="12" y="252.0151">Source ID</text><text fill="#000000" font-family="sans-serif" font-size="11" lengthAdjust="spacingAndGlyphs" textLength="47" x="12" y="264.8198">Partition</text><line style="stroke: #A80036; stroke-width: 1.5;" x1="7" x2="72" y1="271.4141" y2="271.4141"/><!--class Field--><rect fill="#FEFECE" filter="url(#fpnxqja4sq5n1)" height="60.8047" id="Field" style="stroke: #A80036; stroke-width: 1.5;" width="61" x="108" y="205.5"/><ellipse cx="123" cy="221.5" fill="#ADD1B2" rx="11" ry="11" style="stroke: #A80036; stroke-width: 1.0;"/><path d="M125.3438,217.1719 L125.5156,217.25 C125.7344,216.9375 125.9375,216.8438 126.2344,216.8438 C126.5313,216.8438 126.8125,216.9844 126.9688,217.25 C127.0625,217.4063 127.0781,217.5313 127.0781,217.9688 L127.0781,219.3906 C127.0781,219.8125 127.0469,220 126.9375,220.1563 C126.7656,220.375 126.5,220.5156 126.2344,220.5156 C126.0156,220.5156 125.7813,220.4063 125.6406,220.2656 C125.5,220.1406 125.4688,220.0156 125.4063,219.6094 C125.3125,219.2031 125.1406,218.9844 124.6563,218.7031 C124.1875,218.4531 123.5781,218.2969 123,218.2969 C121.2656,218.2969 120.0156,219.6094 120.0156,221.3906 L120.0156,222.4844 C120.0156,224.1875 121.3125,225.2813 123.3594,225.2813 C124.125,225.2813 124.8125,225.1563 125.2344,224.8906 C125.4219,224.7969 125.4219,224.7969 125.875,224.3125 C126.0625,224.125 126.2656,224.0469 126.4844,224.0469 C126.9531,224.0469 127.3438,224.4375 127.3438,224.8906 C127.3438,225.2813 127.0156,225.7344 126.4375,226.1406 C125.6875,226.6875 124.5313,226.9844 123.3125,226.9844 C120.4219,226.9844 118.3125,225.0938 118.3125,222.5156 L118.3125,221.3906 C118.3125,218.6719 120.3125,216.5938 122.9375,216.5938 C123.8125,216.5938 124.4063,216.7344 125.3438,217.1719 Z "/><text fill="#000000" font-family="sans-serif" font-size="12" lengthAdjust="spacingAndGlyphs" textLength="29" x="137" y="225.6543">Field</text><line style="stroke: #A80036; stroke-width: 1.5;" x1="109" x2="168" y1="237.5" y2="237.5"/><text fill="#000000" font-family="sans-serif" font-size="11" lengthAdjust="spacingAndGlyphs" textLength="33" x="114" y="251.7104">Name</text><line style="stroke: #A80036; stroke-width: 1.5;" x1="109" x2="168" y1="258.3047" y2="258.3047"/><!--link Request to Node--><path d="M69.9752,133.312 C64.5718,151.342 58.7555,170.749 53.6672,187.7277 " fill="none" id="Request-Node" style="stroke: #A80036; stroke-width: 1.0;"/><polygon fill="#A80036" points="52.1127,192.9146,58.5281,185.4418,53.5482,188.1251,50.8649,183.1451,52.1127,192.9146" style="stroke: #A80036; stroke-width: 1.0;"/><text fill="#000000" font-family="sans-serif" font-size="13" lengthAdjust="spacingAndGlyphs" textLength="8" x="59.5116" y="153.0859">1</text><text fill="#000000" font-family="sans-serif" font-size="13" lengthAdjust="spacingAndGlyphs" textLength="7" x="46.565" y="181.8975">*</text><!--link Request to Field--><path d="M107.403,133.312 C114.337,155.988 121.938,180.8427 127.889,200.3036 " fill="none" id="Request-Field" style="stroke: #A80036; stroke-width: 1.0;"/><polygon fill="#A80036" points="129.366,205.1305,130.559,195.3542,127.9037,200.3491,122.9088,197.6938,129.366,205.1305" style="stroke: #A80036; stroke-width: 1.0;"/><text fill="#000000" font-family="sans-serif" font-size="13" lengthAdjust="spacingAndGlyphs" textLength="8" x="101.0329" y="153.0859">1</text><text fill="#000000" font-family="sans-serif" font-size="13" lengthAdjust="spacingAndGlyphs" textLength="7" x="119.7602" y="194.3175">*</text><!--
@startuml
Request "1" - -> "*" Node
Request "1" - -> "*" Field

Request : Id
Request : Categories
Request : From
Request : To
Request : When
Request : Tokens

Node : Node ID
Node : Source ID
Node : Partition

Field : Name
@enduml

PlantUML version 1.2017.18beta8(Unknown compile time)
(GPL source distribution)
Java Runtime: Java(TM) SE Runtime Environment
JVM: Java HotSpot(TM) 64-Bit Server VM
Java Version: 1.7.0_25-b15
Operating System: Linux
Default Encoding: UTF-8
Language: en
Country: US
--></g></svg>